%YAML 1.1
%TAG !u! tag:unity3d.com,2011:
--- !u!78 &1
TagManager:
  serializedVersion: 2
  tags:
  - ShipBullet
  - EnemyBullet
  - LinearEnemyPool
  - DelayedEnemyPool
  - LinearShipPool
  - LinearShipLgPool
  - DelayedShipLgPool
  - Enemy
  - Level
  - Powerup
  - Scoreup
  - DelayedHomingEnemyPool
  - Pointer
  - SlowFastEnemyPool
  - Arrow
  - ResumeButton
  - EndButton
  - Gameflow
  - SoundManager
  - HomingEnemyPool
  - SuperLgEnemyPool
  - ShakePool
  layers:
  - Default
  - TransparentFX
  - Ignore Raycast
  - 
  - Water
  - UI
  - 
  - 
  - Above
  - 
  - 
  - 
  - 
  - 
  - 
  - 
  - 
  - 
  - 
  - 
  - 
  - 
  - 
  - 
  - 
  - 
  - 
  - 
  - 
  - 
  - 
  - 
  m_SortingLayers:
  - name: Background
    uniqueID: 781875043
    locked: 0
  - name: Ship Bullets
    uniqueID: 4192241511
    locked: 0
  - name: Default
    uniqueID: 0
    locked: 0
  - name: Enemies
    uniqueID: 4107813649
    locked: 0
  - name: Enemy Bullets
    uniqueID: 3538110273
    locked: 0
  - name: Powerups
    uniqueID: 2967497831
    locked: 0
  - name: Explosions
    uniqueID: 721122469
    locked: 0
  - name: Popups
    uniqueID: 3438940163
    locked: 0
  - name: HUD
    uniqueID: 2167836793
    locked: 0
